Scraping data from Twitterâ€™s Streaming API
…
How many tweets mention Justin Bieber?

length(grep("bieber", tweets$text, ignore.case=TRUE))

## [1] 0

These are toy examples, but for large files with tweets in JSON format, there might be faster ways to parse the data. For example, the ndjson package offers a robust and fast way to parse JSON data:

library(ndjson)
json <- stream_in("data/tweets_geo.json")
json

## Source: local data table [983 x 1,679]
## 
## # A tibble: 983 x 1,679
##    contributors coordinates.cooâ€¦ coordinates.cooâ€¦ coordinates.type
##           <int>            <dbl>            <dbl> <chr>           
##  1           NA            -76.5             39.0 Point           
##  2           NA             NA               NA   <NA>            
##  3           NA             NA               NA   <NA>            
##  4           NA             NA               NA   <NA>            
##  5           NA             NA               NA   <NA>            
##  6           NA             NA               NA   <NA>            
##  7           NA             NA               NA   <NA>            
##  8           NA             NA               NA   <NA>            
##  9           NA             NA               NA   <NA>            
## 10           NA             NA               NA   <NA>            
## # â€¦ with 973 more rows, and 1,675 more variables: created_at <chr>,
## #   entities.hashtags.0.indices.0 <dbl>,
## #   entities.hashtags.0.indices.1 <dbl>, entities.hashtags.0.text <chr>,
## #   entities.hashtags.1.indices.0 <dbl>,
## #   entities.hashtags.1.indices.1 <dbl>, entities.hashtags.1.text <chr>,
## #   entities.symbols <int>, entities.urls.0.display_url <chr>,
## #   entities.urls.0.expanded_url <chr>, entities.urls.0.indices.0 <dbl>,
## #   entities.urls.0.indices.1 <dbl>, entities.urls.0.url <chr>,
## #   entities.user_mentions.0.id <dbl>,
…
